…
```
## [1] 2304
```

```r
nasperday <- activity %>% 
    group_by(date) %>%
    mutate(isna = is.na(steps)) %>%
    summarize(sumnas = sum(isna))
nasperday
```

```
## # A tibble: 61 x 2
##    date       sumnas
##    <date>      <int>
##  1 2012-10-01    288
##  2 2012-10-02      0
##  3 2012-10-03      0
##  4 2012-10-04      0
##  5 2012-10-05      0
##  6 2012-10-06      0
##  7 2012-10-07      0
##  8 2012-10-08    288
##  9 2012-10-09      0
## 10 2012-10-10      0
## # ... with 51 more rows
```
…
